<svg width="42" height="42" viewBox="0 0 42 42" fill="none" xmlns="http://www.w3.org/2000/svg">
    <rect x="14" y="7" width="28" height="4" rx="2" fill="#758385"/>
    <rect x="19" y="19" width="23" height="4" rx="2" fill="#758385"/>
    <rect x="14" y="31" width="28" height="4" rx="2" fill="#758385"/>
</svg>
